{
  "project_info": {
    "project_number": "856506990952",
    "firebase_url": "https://leanontab.firebaseio.com",
    "project_id": "leanontab",
    "storage_bucket": "leanontab.appspot.com"
  },
  "client": [
    {
      "client_info": {
        "mobilesdk_app_id": "1:856506990952:android:1741c3b6db806f74",
        "android_client_info": {
          "package_name": "com.opusone.leanon.guardian"
        }
      },
      "oauth_client": [
        {
          "client_id": "856506990952-tf4bhe0n90boe2j9va9knlv397km5gvq.apps.googleusercontent.com",
          "client_type": 1,
          "android_info": {
            "package_name": "com.opusone.leanon.guardian",
            "certificate_hash": "f88d925aa11e2e2a03b885cd4fe59a28fd463f9d"
          }
        },
        {
          "client_id": "856506990952-tcirppggfskehsshj89iqovho6oqdu84.apps.googleusercontent.com",
          "client_type": 3
        }
      ],
      "api_key": [
        {
          "current_key": "AIzaSyBAQz6CdIenYzqbDdwSs7X1ZnHxRNk6HNY"
        }
      ],
      "services": {
        "appinvite_service": {
          "other_platform_oauth_client": [
            {
              "client_id": "856506990952-tcirppggfskehsshj89iqovho6oqdu84.apps.googleusercontent.com",
              "client_type": 3
            },
            {
              "client_id": "856506990952-7i07f7j7n1k3lcc73inonhjfoecsjplr.apps.googleusercontent.com",
              "client_type": 2,
              "ios_info": {
                "bundle_id": "com.opusone.leanon.guardian"
              }
            }
          ]
        }
      }
    },
    {
      "client_info": {
        "mobilesdk_app_id": "1:856506990952:android:2a22640b32372115",
        "android_client_info": {
          "package_name": "com.opusone.leanon.launcher"
        }
      },
      "oauth_client": [
        {
          "client_id": "856506990952-qgtuq1bv9v4b2e0tup2213dkgm67ffih.apps.googleusercontent.com",
          "client_type": 1,
          "android_info": {
            "package_name": "com.opusone.leanon.launcher",
            "certificate_hash": "f88d925aa11e2e2a03b885cd4fe59a28fd463f9d"
          }
        },
        {
          "client_id": "856506990952-tcirppggfskehsshj89iqovho6oqdu84.apps.googleusercontent.com",
          "client_type": 3
        }
      ],
      "api_key": [
        {
          "current_key": "AIzaSyBAQz6CdIenYzqbDdwSs7X1ZnHxRNk6HNY"
        }
      ],
      "services": {
        "appinvite_service": {
          "other_platform_oauth_client": [
            {
              "client_id": "856506990952-tcirppggfskehsshj89iqovho6oqdu84.apps.googleusercontent.com",
              "client_type": 3
            },
            {
              "client_id": "856506990952-7i07f7j7n1k3lcc73inonhjfoecsjplr.apps.googleusercontent.com",
              "client_type": 2,
              "ios_info": {
                "bundle_id": "com.opusone.leanon.guardian"
              }
            }
          ]
        }
      }
    },
    {
      "client_info": {
        "mobilesdk_app_id": "1:856506990952:android:b04f153b32eca25a",
        "android_client_info": {
          "package_name": "com.opusone.leanon.messenger"
        }
      },
      "oauth_client": [
        {
          "client_id": "856506990952-m7kpp9s0jsamid7rb50uu66g3gl7acp4.apps.googleusercontent.com",
          "client_type": 1,
          "android_info": {
            "package_name": "com.opusone.leanon.messenger",
            "certificate_hash": "23a0519d0256c03d06d882b27502a4ad08cf0ade"
          }
        },
        {
          "client_id": "856506990952-tcirppggfskehsshj89iqovho6oqdu84.apps.googleusercontent.com",
          "client_type": 3
        }
      ],
      "api_key": [
        {
          "current_key": "AIzaSyBAQz6CdIenYzqbDdwSs7X1ZnHxRNk6HNY"
        }
      ],
      "services": {
        "appinvite_service": {
          "other_platform_oauth_client": [
            {
              "client_id": "856506990952-tcirppggfskehsshj89iqovho6oqdu84.apps.googleusercontent.com",
              "client_type": 3
            },
            {
              "client_id": "856506990952-7i07f7j7n1k3lcc73inonhjfoecsjplr.apps.googleusercontent.com",
              "client_type": 2,
              "ios_info": {
                "bundle_id": "com.opusone.leanon.guardian"
              }
            }
          ]
        }
      }
    },
    {
      "client_info": {
        "mobilesdk_app_id": "1:856506990952:android:6ee30c3ba8bca072",
        "android_client_info": {
          "package_name": "com.opusone.leanontabalbum"
        }
      },
      "oauth_client": [
        {
          "client_id": "856506990952-mecttunsbscij9sb59iel6ago84oqe5b.apps.googleusercontent.com",
          "client_type": 1,
          "android_info": {
            "package_name": "com.opusone.leanontabalbum",
            "certificate_hash": "ad219eacab2d64ea6513281c1a1298fb199b9772"
          }
        },
        {
          "client_id": "856506990952-tcirppggfskehsshj89iqovho6oqdu84.apps.googleusercontent.com",
          "client_type": 3
        }
      ],
      "api_key": [
        {
          "current_key": "AIzaSyBAQz6CdIenYzqbDdwSs7X1ZnHxRNk6HNY"
        }
      ],
      "services": {
        "appinvite_service": {
          "other_platform_oauth_client": [
            {
              "client_id": "856506990952-tcirppggfskehsshj89iqovho6oqdu84.apps.googleusercontent.com",
              "client_type": 3
            },
            {
              "client_id": "856506990952-7i07f7j7n1k3lcc73inonhjfoecsjplr.apps.googleusercontent.com",
              "client_type": 2,
              "ios_info": {
                "bundle_id": "com.opusone.leanon.guardian"
              }
            }
          ]
        }
      }
    }
  ],
  "configuration_version": "1"
}